{
  "organisations":[
    {
      "_id": "000000000000000000000000",
      "name": "Venster 33",
      "description": "Cafe/Restaurant",
      "logo": "http://www.venster33.nl/sites/default/files/header_logo.png",
      "features" :{
        "app" : [
          "reports"
        ]

      },
      "users": [
        {
          "id": "100000000000000000000000",
          "role": "owner",
          "active": true
        },
        {
          "id": "100000000000000000000001",
          "role": "worker",
          "active": true
        },
        {
          "id": "100000000000000000000002",
          "role": "approver",
          "active" : true,
          "approver" : [
            {
              "id" : "100000000000000000000003",
              "active" : true
            },
            {
              "id" : "100000000000000000000001",
              "active" : true
            }
          ],
          "ref" : null
        },
        {
          "id": "100000000000000000000003",
          "role": "worker",
          "active": true
        }
      ]
    }
  ],
  "users":[
    {
      "_id": "100000000000000000000000",
      "name": "Willem Veelenturf 1",
      "username" : "willem.veelenturf1@gmail.com",
      "email": "willem.veelenturf1@gmail.com",
      "password": 123456,
      "provider": "local"
    },
    {
      "_id": "100000000000000000000001",
      "name": "Willem Veelenturf 2",
      "username" : "willem.veelenturf2@gmail.com",
      "email": "willem.veelenturf2@gmail.com",
      "password": 123456,
      "provider": "local"
    },
    {
      "_id": "100000000000000000000002",
      "name": "Jasmin Jane",
      "username" : "jasminjanerengers@gmail.com",
      "email": "jasminjanerengers@gmail.com",
      "password": 123456,
      "provider": "local"
    },
    {
      "_id": "100000000000000000000003",
      "name": "Test",
      "username" : "jasminjanerengers2@gmail.com",
      "email": "jasminjanerengers2@gmail.com",
      "password": 123456,
      "provider": "local"
    }
  ],
  "shifts":[
    {
      "_id": "200000000000000000000000",
      "type": "SHIFT",
      "user": "100000000000000000000003",
      "organisation": "000000000000000000000000",
      "from": "1969-12-29T18:00:00.000+0000",
      "to": "1969-12-29T20:00:00.000+0000",
      "pause": null,
      "status": "pending"
    },
    {
      "_id": "200000000000000000000001",
      "type": "SHIFT",
      "user": "100000000000000000000003",
      "organisation": "000000000000000000000000",
      "from": "2016-07-29T18:00:00.000+0000",
      "to": "2016-07-29T20:00:00.000+0000",
      "pause": null,
      "status": "approved"
    }
  ],
  "transactions":[
    {
      "_id" : "300000000000000000000000",
      "user" : "100000000000000000000000",
      "description" : "Add credits",
      "date" : "2015-06-10T06:45:00.000+0000",
      "amount" : "500",
      "ref" : "tr_YaSSg3WspS",
      "status" : "paid"
    }
  ]
}

