{
  "organisations":[
    {
      "_id": "000000000000000000000000",
      "name": "Venster 33",
      "description": "Cafe/Restaurant",
      "logo": "http://www.venster33.nl/sites/default/files/header_logo.png",
      "users": [
        {
          "id": "100000000000000000000000",
          "role": "owner",
          "active": true
        }
      ]
    }
  ],
  "users":[
    {
      "_id": "100000000000000000000000",
      "name": "Willem Veelenturf",
      "username" : "willem.veelenturf@gmail.com",
      "email": "willem.veelenturf@gmail.com",
      "password": 123456,
      "provider": "local"
    }
  ]
}